<define-tag pagetitle>DLA-3142-1 dbus</define-tag>
<define-tag report_date>2022-10-10</define-tag>
<define-tag secrefs>CVE-2022-42010 CVE-2022-42011 CVE-2022-42012</define-tag>
<define-tag packages>dbus</define-tag>
<define-tag isvulnerable>yes</define-tag>
<define-tag fixed>yes</define-tag>
<define-tag fixed-section>no</define-tag>

#use wml::debian::security

