<define-tag pagetitle>DLA-3235-1 node-eventsource</define-tag>
<define-tag report_date>2022-12-11</define-tag>
<define-tag secrefs>CVE-2022-1650</define-tag>
<define-tag packages>node-eventsource</define-tag>
<define-tag isvulnerable>yes</define-tag>
<define-tag fixed>yes</define-tag>
<define-tag fixed-section>no</define-tag>

#use wml::debian::security

