<define-tag pagetitle>DLA-3213-1 krb5</define-tag>
<define-tag report_date>2022-11-29</define-tag>
<define-tag secrefs>CVE-2022-42898</define-tag>
<define-tag packages>krb5</define-tag>
<define-tag isvulnerable>yes</define-tag>
<define-tag fixed>yes</define-tag>
<define-tag fixed-section>no</define-tag>

#use wml::debian::security
