<define-tag pagetitle>DLA-3105-1 connman</define-tag>
<define-tag report_date>2022-09-13</define-tag>
<define-tag secrefs>CVE-2022-32292 CVE-2022-32293</define-tag>
<define-tag packages>connman</define-tag>
<define-tag isvulnerable>yes</define-tag>
<define-tag fixed>yes</define-tag>
<define-tag fixed-section>no</define-tag>

#use wml::debian::security
