<define-tag pagetitle>DLA-3030-1 zipios++</define-tag>
<define-tag report_date>2022-5-27</define-tag>
<define-tag secrefs>CVE-2019-13453</define-tag>
<define-tag packages>zipios++</define-tag>
<define-tag isvulnerable>yes</define-tag>
<define-tag fixed>yes</define-tag>
<define-tag fixed-section>no</define-tag>

#use wml::debian::security

