<define-tag pagetitle>DLA-3203-1 nginx</define-tag>
<define-tag report_date>2022-11-23</define-tag>
<define-tag secrefs>CVE-2021-3618 CVE-2022-41741 CVE-2022-41742 Bug#991328</define-tag>
<define-tag packages>nginx</define-tag>
<define-tag isvulnerable>yes</define-tag>
<define-tag fixed>yes</define-tag>
<define-tag fixed-section>no</define-tag>

#use wml::debian::security

