<define-tag pagetitle>DLA-3180-1 python-scciclient</define-tag>
<define-tag report_date>2022-11-07</define-tag>
<define-tag secrefs>CVE-2022-2996 Bug#1018213</define-tag>
<define-tag packages>python-scciclient</define-tag>
<define-tag isvulnerable>yes</define-tag>
<define-tag fixed>yes</define-tag>
<define-tag fixed-section>no</define-tag>

#use wml::debian::security

