<define-tag pagetitle>DLA-3151-1 squid</define-tag>
<define-tag report_date>2022-10-13</define-tag>
<define-tag secrefs>CVE-2022-41317 CVE-2022-41318</define-tag>
<define-tag packages>squid</define-tag>
<define-tag isvulnerable>yes</define-tag>
<define-tag fixed>yes</define-tag>
<define-tag fixed-section>no</define-tag>

#use wml::debian::security

