<define-tag pagetitle>DLA-3114-2 mariadb-10.3</define-tag>
<define-tag report_date>2022-09-30</define-tag>
<define-tag secrefs>Bug#1020301</define-tag>
<define-tag packages>mariadb-10.3</define-tag>
<define-tag isvulnerable>yes</define-tag>
<define-tag fixed>yes</define-tag>
<define-tag fixed-section>no</define-tag>

#use wml::debian::security

