<define-tag pagetitle>DLA-3036-1 pjproject</define-tag>
<define-tag report_date>2022-06-02</define-tag>
<define-tag secrefs>CVE-2022-24763 CVE-2022-24792 CVE-2022-24793</define-tag>
<define-tag packages>pjproject</define-tag>
<define-tag isvulnerable>yes</define-tag>
<define-tag fixed>yes</define-tag>
<define-tag fixed-section>no</define-tag>

#use wml::debian::security

