<define-tag pagetitle>DLA-3178-1 ffmpeg</define-tag>
<define-tag report_date>2022-11-04</define-tag>
<define-tag packages>ffmpeg</define-tag>
<define-tag isvulnerable>yes</define-tag>
<define-tag fixed>yes</define-tag>
<define-tag fixed-section>no</define-tag>

#use wml::debian::security

