<define-tag pagetitle>DSA-5020-1 apache-log4j2</define-tag>
<define-tag report_date>2021-12-11</define-tag>
<define-tag secrefs>CVE-2021-44228 CVE-2020-9488 Bug#959450 Bug#1001478</define-tag>
<define-tag packages>apache-log4j2</define-tag>
<define-tag isvulnerable>yes</define-tag>
<define-tag fixed>yes</define-tag>
<define-tag fixed-section>no</define-tag>

#use wml::debian::security



</dl>
