<define-tag pagetitle>DSA-4965-1 libssh</define-tag>
<define-tag report_date>2021-8-31</define-tag>
<define-tag secrefs>CVE-2021-3634 Bug#993046</define-tag>
<define-tag packages>libssh</define-tag>
<define-tag isvulnerable>yes</define-tag>
<define-tag fixed>yes</define-tag>
<define-tag fixed-section>no</define-tag>

#use wml::debian::security



</dl>
