<define-tag pagetitle>DSA-4855-1 openssl</define-tag>
<define-tag report_date>2021-2-17</define-tag>
<define-tag secrefs>CVE-2019-1551 CVE-2021-23840 CVE-2021-23841 Bug#947949</define-tag>
<define-tag packages>openssl</define-tag>
<define-tag isvulnerable>yes</define-tag>
<define-tag fixed>yes</define-tag>
<define-tag fixed-section>no</define-tag>

#use wml::debian::security



</dl>
