<define-tag pagetitle>DSA-4978-1 linux</define-tag>
<define-tag report_date>2021-9-25</define-tag>
<define-tag secrefs>CVE-2020-3702 CVE-2020-16119 CVE-2021-3653 CVE-2021-3656 CVE-2021-3679 CVE-2021-3732 CVE-2021-3739 CVE-2021-3743 CVE-2021-3753 CVE-2021-37576 CVE-2021-38160 CVE-2021-38166 CVE-2021-38199 CVE-2021-40490 CVE-2021-41073 Bug#993948 Bug#993978</define-tag>
<define-tag packages>linux</define-tag>
<define-tag isvulnerable>yes</define-tag>
<define-tag fixed>yes</define-tag>
<define-tag fixed-section>no</define-tag>

#use wml::debian::security



</dl>
