<define-tag pagetitle>DSA-4834-1 vlc</define-tag>
<define-tag report_date>2021-1-22</define-tag>
<define-tag secrefs>CVE-2020-26664 Bug#979676</define-tag>
<define-tag packages>vlc</define-tag>
<define-tag isvulnerable>yes</define-tag>
<define-tag fixed>yes</define-tag>
<define-tag fixed-section>no</define-tag>

#use wml::debian::security



</dl>
