<define-tag pagetitle>DSA-4875-1 openssl</define-tag>
<define-tag report_date>2021-3-25</define-tag>
<define-tag secrefs>CVE-2021-3449</define-tag>
<define-tag packages>openssl</define-tag>
<define-tag isvulnerable>yes</define-tag>
<define-tag fixed>yes</define-tag>
<define-tag fixed-section>no</define-tag>

#use wml::debian::security



</dl>
