<define-tag pagetitle>DSA-4938-1 linuxptp</define-tag>
<define-tag report_date>2021-7-13</define-tag>
<define-tag secrefs>CVE-2021-3570 Bug#990748</define-tag>
<define-tag packages>linuxptp</define-tag>
<define-tag isvulnerable>yes</define-tag>
<define-tag fixed>yes</define-tag>
<define-tag fixed-section>no</define-tag>

#use wml::debian::security



</dl>
