<define-tag pagetitle>DSA-4776-1 mariadb-10.3</define-tag>
<define-tag report_date>2020-10-20</define-tag>
<define-tag secrefs>CVE-2020-15180</define-tag>
<define-tag packages>mariadb-10.3</define-tag>
<define-tag isvulnerable>yes</define-tag>
<define-tag fixed>yes</define-tag>
<define-tag fixed-section>no</define-tag>

#use wml::debian::security



</dl>
