<define-tag pagetitle>DSA-4615-1 spamassassin</define-tag>
<define-tag report_date>2020-2-01</define-tag>
<define-tag secrefs>CVE-2020-1930 CVE-2020-1931 Bug#950258</define-tag>
<define-tag packages>spamassassin</define-tag>
<define-tag isvulnerable>yes</define-tag>
<define-tag fixed>yes</define-tag>
<define-tag fixed-section>no</define-tag>

#use wml::debian::security



</dl>
