<define-tag pagetitle>DSA-4677-1 wordpress</define-tag>
<define-tag report_date>2020-5-06</define-tag>
<define-tag secrefs>CVE-2019-9787 CVE-2019-16217 CVE-2019-16218 CVE-2019-16219 CVE-2019-16220 CVE-2019-16221 CVE-2019-16222 CVE-2019-16223 CVE-2019-16780 CVE-2019-16781 CVE-2019-17669 CVE-2019-17671 CVE-2019-17672 CVE-2019-17673 CVE-2019-17674 CVE-2019-17675 CVE-2019-20041 CVE-2019-20042 CVE-2019-20043 CVE-2020-11025 CVE-2020-11026 CVE-2020-11027 CVE-2020-11028 CVE-2020-11029 CVE-2020-11030 Bug#924546 Bug#939543 Bug#942459 Bug#946905 Bug#959391</define-tag>
<define-tag packages>wordpress</define-tag>
<define-tag isvulnerable>yes</define-tag>
<define-tag fixed>yes</define-tag>
<define-tag fixed-section>no</define-tag>

#use wml::debian::security



</dl>
