<define-tag pagetitle>DLA-2848-1 libssh2</define-tag>
<define-tag report_date>2021-12-17</define-tag>
<define-tag secrefs>CVE-2019-13115 CVE-2019-17498</define-tag>
<define-tag packages>libssh2</define-tag>
<define-tag isvulnerable>yes</define-tag>
<define-tag fixed>yes</define-tag>
<define-tag fixed-section>no</define-tag>

#use wml::debian::security

