<define-tag pagetitle>DLA-2831-1 libntlm</define-tag>
<define-tag report_date>2021-11-28</define-tag>
<define-tag secrefs>CVE-2019-17455 Bug#942145</define-tag>
<define-tag packages>libntlm</define-tag>
<define-tag isvulnerable>yes</define-tag>
<define-tag fixed>yes</define-tag>
<define-tag fixed-section>no</define-tag>

#use wml::debian::security

