<define-tag pagetitle>DLA-2820-1 atftp</define-tag>
<define-tag report_date>2021-11-17</define-tag>
<define-tag secrefs>CVE-2020-6097 CVE-2021-41054</define-tag>
<define-tag packages>atftp</define-tag>
<define-tag isvulnerable>yes</define-tag>
<define-tag fixed>yes</define-tag>
<define-tag fixed-section>no</define-tag>

#use wml::debian::security

