<define-tag pagetitle>DLA-2693-1 xmlbeans</define-tag>
<define-tag report_date>2021-6-28</define-tag>
<define-tag secrefs>CVE-2021-23926</define-tag>
<define-tag packages>xmlbeans</define-tag>
<define-tag isvulnerable>yes</define-tag>
<define-tag fixed>yes</define-tag>
<define-tag fixed-section>no</define-tag>

#use wml::debian::security

