<define-tag pagetitle>DLA-2584-1 libcaca</define-tag>
<define-tag report_date>2021-03-08</define-tag>
<define-tag secrefs>CVE-2021-3410 Bug#983684</define-tag>
<define-tag packages>libcaca</define-tag>
<define-tag isvulnerable>yes</define-tag>
<define-tag fixed>yes</define-tag>
<define-tag fixed-section>no</define-tag>

#use wml::debian::security

