<define-tag pagetitle>DSA-5490-1 aom</define-tag>
<define-tag report_date>2023-9-06</define-tag>
<define-tag secrefs>CVE-2020-36130 CVE-2020-36131 CVE-2020-36133 CVE-2020-36135 CVE-2021-30473 CVE-2021-30474 CVE-2021-30475</define-tag>
<define-tag packages>aom</define-tag>
<define-tag isvulnerable>yes</define-tag>
<define-tag fixed>yes</define-tag>
<define-tag fixed-section>no</define-tag>

#use wml::debian::security



</dl>
