<define-tag pagetitle>DSA-5377-1 chromium</define-tag>
<define-tag report_date>2023-3-23</define-tag>
<define-tag secrefs>CVE-2023-1528 CVE-2023-1529 CVE-2023-1530 CVE-2023-1531 CVE-2023-1532 CVE-2023-1533 CVE-2023-1534 Bug#1015367 Bug#1033015 Bug#1033223</define-tag>
<define-tag packages>chromium</define-tag>
<define-tag isvulnerable>yes</define-tag>
<define-tag fixed>yes</define-tag>
<define-tag fixed-section>no</define-tag>

#use wml::debian::security



</dl>
