<define-tag pagetitle>DSA-5396-2 evolution</define-tag>
<define-tag report_date>2023-5-04</define-tag>
<define-tag secrefs>Bug#1035469</define-tag>
<define-tag packages>evolution</define-tag>
<define-tag isvulnerable>yes</define-tag>
<define-tag fixed>yes</define-tag>
<define-tag fixed-section>no</define-tag>

#use wml::debian::security



</dl>
