<define-tag pagetitle>DSA-5446-1 ghostscript</define-tag>
<define-tag report_date>2023-7-03</define-tag>
<define-tag secrefs>CVE-2023-36664</define-tag>
<define-tag packages>ghostscript</define-tag>
<define-tag isvulnerable>yes</define-tag>
<define-tag fixed>yes</define-tag>
<define-tag fixed-section>no</define-tag>

#use wml::debian::security



</dl>
