<define-tag pagetitle>DSA-5506-1 firefox-esr</define-tag>
<define-tag report_date>2023-9-28</define-tag>
<define-tag secrefs>CVE-2023-5169 CVE-2023-5171 CVE-2023-5176</define-tag>
<define-tag packages>firefox-esr</define-tag>
<define-tag isvulnerable>yes</define-tag>
<define-tag fixed>yes</define-tag>
<define-tag fixed-section>no</define-tag>

#use wml::debian::security



</dl>
