<define-tag pagetitle>DSA-5431-1 sofia-sip</define-tag>
<define-tag report_date>2023-6-16</define-tag>
<define-tag secrefs>CVE-2023-32307 Bug#1036847</define-tag>
<define-tag packages>sofia-sip</define-tag>
<define-tag isvulnerable>yes</define-tag>
<define-tag fixed>yes</define-tag>
<define-tag fixed-section>no</define-tag>

#use wml::debian::security



</dl>
