<define-tag pagetitle>DSA-5502-1 xrdp</define-tag>
<define-tag report_date>2023-9-18</define-tag>
<define-tag secrefs>CVE-2022-23468 CVE-2022-23477 CVE-2022-23478 CVE-2022-23479 CVE-2022-23480 CVE-2022-23481 CVE-2022-23482 CVE-2022-23483 CVE-2022-23484 CVE-2022-23493 Bug#1025879</define-tag>
<define-tag packages>xrdp</define-tag>
<define-tag isvulnerable>yes</define-tag>
<define-tag fixed>yes</define-tag>
<define-tag fixed-section>no</define-tag>

#use wml::debian::security



</dl>
