<define-tag pagetitle>DSA-5387-1 openvswitch</define-tag>
<define-tag report_date>2023-4-13</define-tag>
<define-tag secrefs>CVE-2023-1668 Bug#1034042</define-tag>
<define-tag packages>openvswitch</define-tag>
<define-tag isvulnerable>yes</define-tag>
<define-tag fixed>yes</define-tag>
<define-tag fixed-section>no</define-tag>

#use wml::debian::security



</dl>
