<define-tag pagetitle>DSA-5384-1 openimageio</define-tag>
<define-tag report_date>2023-4-10</define-tag>
<define-tag secrefs>CVE-2022-36354 CVE-2022-41639 CVE-2022-41649 CVE-2022-41684 CVE-2022-41794 CVE-2022-41837 CVE-2022-41838 CVE-2022-41977 CVE-2022-41981 CVE-2022-41988 CVE-2022-41999 CVE-2022-43592 CVE-2022-43593 CVE-2022-43594 CVE-2022-43595 CVE-2022-43596 CVE-2022-43597 CVE-2022-43598 CVE-2022-43599 CVE-2022-43600 CVE-2022-43601 CVE-2022-43602 CVE-2022-43603 Bug#1027143 Bug#1027808</define-tag>
<define-tag packages>openimageio</define-tag>
<define-tag isvulnerable>yes</define-tag>
<define-tag fixed>yes</define-tag>
<define-tag fixed-section>no</define-tag>

#use wml::debian::security



</dl>
