<define-tag pagetitle>DSA-5333-1 tiff</define-tag>
<define-tag report_date>2023-1-29</define-tag>
<define-tag secrefs>CVE-2022-1354 CVE-2022-1355 CVE-2022-1622 CVE-2022-1623 CVE-2022-2056 CVE-2022-2057 CVE-2022-2058 CVE-2022-2519 CVE-2022-2520 CVE-2022-2521 CVE-2022-2867 CVE-2022-2868 CVE-2022-2869 CVE-2022-2953 CVE-2022-3570 CVE-2022-3597 CVE-2022-3599 CVE-2022-3627 CVE-2022-34526 CVE-2022-48281 Bug#1011160 Bug#1014494 Bug#1022555 Bug#1024737 Bug#1029653</define-tag>
<define-tag packages>tiff</define-tag>
<define-tag isvulnerable>yes</define-tag>
<define-tag fixed>yes</define-tag>
<define-tag fixed-section>no</define-tag>

#use wml::debian::security



</dl>
