<define-tag pagetitle>DSA-5312-1 libjettison-java</define-tag>
<define-tag report_date>2023-1-11</define-tag>
<define-tag secrefs>CVE-2022-40149 CVE-2022-40150 CVE-2022-45685 CVE-2022-45693 Bug#1022553 Bug#1022554</define-tag>
<define-tag packages>libjettison-java</define-tag>
<define-tag isvulnerable>yes</define-tag>
<define-tag fixed>yes</define-tag>
<define-tag fixed-section>no</define-tag>

#use wml::debian::security



</dl>
