<define-tag pagetitle>DSA-5508-1 chromium</define-tag>
<define-tag report_date>2023-9-29</define-tag>
<define-tag secrefs>CVE-2023-5186 CVE-2023-5187 CVE-2023-5217</define-tag>
<define-tag packages>chromium</define-tag>
<define-tag isvulnerable>yes</define-tag>
<define-tag fixed>yes</define-tag>
<define-tag fixed-section>no</define-tag>

#use wml::debian::security



</dl>
