<define-tag pagetitle>DSA-5492-1 linux</define-tag>
<define-tag report_date>2023-9-09</define-tag>
<define-tag secrefs>CVE-2023-1206 CVE-2023-1989 CVE-2023-2430 CVE-2023-2898 CVE-2023-3611 CVE-2023-3772 CVE-2023-3773 CVE-2023-3776 CVE-2023-3777 CVE-2023-3863 CVE-2023-4004 CVE-2023-4015 CVE-2023-4128 CVE-2023-4132 CVE-2023-4147 CVE-2023-4155 CVE-2023-4194 CVE-2023-4206 CVE-2023-4207 CVE-2023-4208 CVE-2023-4273 CVE-2023-4569 CVE-2023-4622 CVE-2023-20588 CVE-2023-34319 CVE-2023-40283</define-tag>
<define-tag packages>linux</define-tag>
<define-tag isvulnerable>yes</define-tag>
<define-tag fixed>yes</define-tag>
<define-tag fixed-section>no</define-tag>

#use wml::debian::security



</dl>
