<define-tag pagetitle>DSA-5329-1 bind9</define-tag>
<define-tag report_date>2023-1-26</define-tag>
<define-tag secrefs>CVE-2022-3094 CVE-2022-3736 CVE-2022-3924</define-tag>
<define-tag packages>bind9</define-tag>
<define-tag isvulnerable>yes</define-tag>
<define-tag fixed>yes</define-tag>
<define-tag fixed-section>no</define-tag>

#use wml::debian::security



</dl>
