<define-tag pagetitle>DLA-0005-1 apt</define-tag>
<define-tag report_date>2014-6-12</define-tag>
<define-tag secrefs>CVE-2011-3634 CVE-2014-0478 Bug#749795</define-tag>
<define-tag packages>apt</define-tag>
<define-tag isvulnerable>yes</define-tag>
<define-tag fixed>yes</define-tag>
<define-tag fixed-section>no</define-tag>

#use wml::debian::security

