<define-tag pagetitle>DLA-0004-1 dovecot</define-tag>
<define-tag report_date>2014-6-11</define-tag>
<define-tag secrefs>CVE-2014-3430 Bug#747549</define-tag>
<define-tag packages>dovecot</define-tag>
<define-tag isvulnerable>yes</define-tag>
<define-tag fixed>yes</define-tag>
<define-tag fixed-section>no</define-tag>

#use wml::debian::security

