<define-tag pagetitle>DLA-1076-1 php5</define-tag>
<define-tag report_date>2017-8-30</define-tag>
<define-tag secrefs>CVE-2017-12933</define-tag>
<define-tag packages>php5</define-tag>
<define-tag isvulnerable>yes</define-tag>
<define-tag fixed>yes</define-tag>
<define-tag fixed-section>no</define-tag>

#use wml::debian::security

