<define-tag pagetitle>DLA-1201-1 libxcursor</define-tag>
<define-tag report_date>2017-12-10</define-tag>
<define-tag secrefs>CVE-2017-16612 Bug#883792</define-tag>
<define-tag packages>libxcursor</define-tag>
<define-tag isvulnerable>yes</define-tag>
<define-tag fixed>yes</define-tag>
<define-tag fixed-section>no</define-tag>

#use wml::debian::security

