<define-tag pagetitle>DLA-1074-1 poppler</define-tag>
<define-tag report_date>2017-8-29</define-tag>
<define-tag secrefs>CVE-2013-4473 CVE-2013-4474 CVE-2017-9775 CVE-2017-9776 CVE-2017-9865</define-tag>
<define-tag packages>poppler</define-tag>
<define-tag isvulnerable>yes</define-tag>
<define-tag fixed>yes</define-tag>
<define-tag fixed-section>no</define-tag>

#use wml::debian::security

