<define-tag pagetitle>DLA-787-1 otrs2</define-tag>
<define-tag report_date>2017-1-16</define-tag>
<define-tag secrefs>CVE-2016-9139 Bug#843091</define-tag>
<define-tag packages>otrs2</define-tag>
<define-tag isvulnerable>yes</define-tag>
<define-tag fixed>yes</define-tag>
<define-tag fixed-section>no</define-tag>

#use wml::debian::security

