<define-tag pagetitle>DLA-1085-1 libidn2-0</define-tag>
<define-tag report_date>2017-9-3</define-tag>
<define-tag secrefs>CVE-2017-14062 Bug##873902</define-tag>
<define-tag packages>libidn2-0</define-tag>
<define-tag isvulnerable>yes</define-tag>
<define-tag fixed>yes</define-tag>
<define-tag fixed-section>no</define-tag>

#use wml::debian::security

