<define-tag pagetitle>DLA-971-1 nss</define-tag>
<define-tag report_date>2017-5-31</define-tag>
<define-tag secrefs>CVE-2017-7502 Bug#863839</define-tag>
<define-tag packages>nss</define-tag>
<define-tag isvulnerable>yes</define-tag>
<define-tag fixed>yes</define-tag>
<define-tag fixed-section>no</define-tag>

#use wml::debian::security

