<define-tag pagetitle>DLA-3517-1 pdfcrack</define-tag>
<define-tag report_date>2023-08-06</define-tag>
<define-tag secrefs>CVE-2020-22336</define-tag>
<define-tag packages>pdfcrack</define-tag>
<define-tag isvulnerable>yes</define-tag>
<define-tag fixed>yes</define-tag>
<define-tag fixed-section>no</define-tag>

#use wml::debian::security

