<define-tag pagetitle>DLA-3538-1 zabbix</define-tag>
<define-tag report_date>2023-08-22</define-tag>
<define-tag secrefs>CVE-2013-7484 CVE-2019-17382 CVE-2022-35229 CVE-2022-43515 CVE-2023-29450 CVE-2023-29451 CVE-2023-29454 CVE-2023-29455 CVE-2023-29456 CVE-2023-29457 Bug#1026847</define-tag>
<define-tag packages>zabbix</define-tag>
<define-tag isvulnerable>yes</define-tag>
<define-tag fixed>yes</define-tag>
<define-tag fixed-section>no</define-tag>

#use wml::debian::security

