<define-tag pagetitle>DLA-3461-1 libfastjson</define-tag>
<define-tag report_date>2023-6-20</define-tag>
<define-tag secrefs>CVE-2020-12762</define-tag>
<define-tag packages>libfastjson</define-tag>
<define-tag isvulnerable>yes</define-tag>
<define-tag fixed>yes</define-tag>
<define-tag fixed-section>no</define-tag>

#use wml::debian::security

