<define-tag pagetitle>DLA-3481-1 libusrsctp</define-tag>
<define-tag report_date>2023-07-17</define-tag>
<define-tag secrefs>CVE-2019-20503 Bug#953270</define-tag>
<define-tag packages>libusrsctp</define-tag>
<define-tag isvulnerable>yes</define-tag>
<define-tag fixed>yes</define-tag>
<define-tag fixed-section>no</define-tag>

#use wml::debian::security

