<define-tag pagetitle>DLA-3193-2 joblib</define-tag>
<define-tag report_date>2023-03-30</define-tag>
<define-tag secrefs>CVE-2022-21797 Bug#1020820</define-tag>
<define-tag packages>joblib</define-tag>
<define-tag isvulnerable>yes</define-tag>
<define-tag fixed>yes</define-tag>
<define-tag fixed-section>no</define-tag>

#use wml::debian::security

