<define-tag pagetitle>DLA-3358-1 mpv</define-tag>
<define-tag report_date>2023-3-12</define-tag>
<define-tag secrefs>CVE-2020-19824</define-tag>
<define-tag packages>mpv</define-tag>
<define-tag isvulnerable>yes</define-tag>
<define-tag fixed>yes</define-tag>
<define-tag fixed-section>no</define-tag>

#use wml::debian::security

