<define-tag pagetitle>DLA-3497-1 pypdf2</define-tag>
<define-tag report_date>2023-07-14</define-tag>
<define-tag secrefs>CVE-2023-36810</define-tag>
<define-tag packages>pypdf2</define-tag>
<define-tag isvulnerable>yes</define-tag>
<define-tag fixed>yes</define-tag>
<define-tag fixed-section>no</define-tag>

#use wml::debian::security

