<define-tag pagetitle>DLA-3584-1 netatalk</define-tag>
<define-tag report_date>2023-9-25</define-tag>
<define-tag secrefs>CVE-2023-42464 Bug#1052087</define-tag>
<define-tag packages>netatalk</define-tag>
<define-tag isvulnerable>yes</define-tag>
<define-tag fixed>yes</define-tag>
<define-tag fixed-section>no</define-tag>

#use wml::debian::security

