<define-tag pagetitle>DLA-3563-1 samba</define-tag>
<define-tag report_date>2023-09-14</define-tag>
<define-tag secrefs>CVE-2016-2124 CVE-2019-10218 CVE-2019-14833 CVE-2019-14847 CVE-2019-14902 CVE-2019-14907 CVE-2019-19344</define-tag>
<define-tag packages>samba</define-tag>
<define-tag isvulnerable>yes</define-tag>
<define-tag fixed>yes</define-tag>
<define-tag fixed-section>no</define-tag>

#use wml::debian::security

