<define-tag pagetitle>DLA-3425-1 sqlparse</define-tag>
<define-tag report_date>2023-05-16</define-tag>
<define-tag secrefs>CVE-2023-30608 Bug#1034615</define-tag>
<define-tag packages>sqlparse</define-tag>
<define-tag isvulnerable>yes</define-tag>
<define-tag fixed>yes</define-tag>
<define-tag fixed-section>no</define-tag>

#use wml::debian::security

