<define-tag pagetitle>DLA-3373-1 json-smart</define-tag>
<define-tag report_date>2023-03-30</define-tag>
<define-tag secrefs>CVE-2021-31684 CVE-2023-1370 Bug#1033474</define-tag>
<define-tag packages>json-smart</define-tag>
<define-tag isvulnerable>yes</define-tag>
<define-tag fixed>yes</define-tag>
<define-tag fixed-section>no</define-tag>

#use wml::debian::security

