<define-tag pagetitle>DLA-3593-1 gerbv</define-tag>
<define-tag report_date>2023-09-30</define-tag>
<define-tag secrefs>CVE-2021-40393 CVE-2021-40394 CVE-2023-4508 Bug#1050560</define-tag>
<define-tag packages>gerbv</define-tag>
<define-tag isvulnerable>yes</define-tag>
<define-tag fixed>yes</define-tag>
<define-tag fixed-section>no</define-tag>

#use wml::debian::security

