<define-tag pagetitle>DLA-3338-1 git</define-tag>
<define-tag report_date>2023-02-23</define-tag>
<define-tag secrefs>CVE-2023-22490 CVE-2023-23946</define-tag>
<define-tag packages>git</define-tag>
<define-tag isvulnerable>yes</define-tag>
<define-tag fixed>yes</define-tag>
<define-tag fixed-section>no</define-tag>

#use wml::debian::security

