<define-tag pagetitle>DLA-3562-1 orthanc</define-tag>
<define-tag report_date>2023-09-12</define-tag>
<define-tag secrefs>CVE-2023-33466 Bug#1040597</define-tag>
<define-tag packages>orthanc</define-tag>
<define-tag isvulnerable>yes</define-tag>
<define-tag fixed>yes</define-tag>
<define-tag fixed-section>no</define-tag>

#use wml::debian::security

