<define-tag pagetitle>DLA-3379-1 intel-microcode</define-tag>
<define-tag report_date>2023-04-01</define-tag>
<define-tag secrefs>CVE-2022-21216 CVE-2022-21233 CVE-2022-33196 CVE-2022-33972 CVE-2022-38090 Bug#1031334</define-tag>
<define-tag packages>intel-microcode</define-tag>
<define-tag isvulnerable>yes</define-tag>
<define-tag fixed>yes</define-tag>
<define-tag fixed-section>no</define-tag>

#use wml::debian::security

