<define-tag pagetitle>DLA-3429-1 imagemagick</define-tag>
<define-tag report_date>2023-05-21</define-tag>
<define-tag secrefs>CVE-2021-20176 CVE-2021-20241 CVE-2021-20243 CVE-2021-20244 CVE-2021-20245 CVE-2021-20246 CVE-2021-20309 CVE-2021-20312 CVE-2021-20313 CVE-2021-39212 CVE-2022-28463 CVE-2022-32545 CVE-2022-32546 CVE-2022-32547 Bug#996588 Bug#1013282 Bug#1016442</define-tag>
<define-tag packages>imagemagick</define-tag>
<define-tag isvulnerable>yes</define-tag>
<define-tag fixed>yes</define-tag>
<define-tag fixed-section>no</define-tag>

#use wml::debian::security

