<define-tag pagetitle>DLA-3372-1 xorg-server</define-tag>
<define-tag report_date>2023-3-29</define-tag>
<define-tag secrefs>CVE-2023-1393</define-tag>
<define-tag packages>xorg-server</define-tag>
<define-tag isvulnerable>yes</define-tag>
<define-tag fixed>yes</define-tag>
<define-tag fixed-section>no</define-tag>

#use wml::debian::security

