<define-tag pagetitle>DLA-3463-1 opensc</define-tag>
<define-tag report_date>2023-06-21</define-tag>
<define-tag secrefs>CVE-2019-6502 CVE-2021-42779 CVE-2021-42780 CVE-2021-42781 CVE-2021-42782 CVE-2023-2977 Bug#1037021</define-tag>
<define-tag packages>opensc</define-tag>
<define-tag isvulnerable>yes</define-tag>
<define-tag fixed>yes</define-tag>
<define-tag fixed-section>no</define-tag>

#use wml::debian::security

