<define-tag pagetitle>DLA-3357-1 imagemagick</define-tag>
<define-tag report_date>2023-03-11</define-tag>
<define-tag secrefs>CVE-2020-19667 CVE-2020-25665 CVE-2020-25666 CVE-2020-25674 CVE-2020-25675 CVE-2020-25676 CVE-2020-27560 CVE-2020-27750 CVE-2020-27751 CVE-2020-27754 CVE-2020-27756 CVE-2020-27757 CVE-2020-27758 CVE-2020-27759 CVE-2020-27760 CVE-2020-27761 CVE-2020-27762 CVE-2020-27763 CVE-2020-27764 CVE-2020-27765 CVE-2020-27766 CVE-2020-27767 CVE-2020-27768 CVE-2020-27769 CVE-2020-27770 CVE-2020-27771 CVE-2020-27772 CVE-2020-27773 CVE-2020-27774 CVE-2020-27775 CVE-2020-27776 CVE-2020-29599 CVE-2021-3574 CVE-2021-3596 CVE-2021-20224 CVE-2022-44267 CVE-2022-44268 Bug#1027164 Bug#1030767</define-tag>
<define-tag packages>imagemagick</define-tag>
<define-tag isvulnerable>yes</define-tag>
<define-tag fixed>yes</define-tag>
<define-tag fixed-section>no</define-tag>

#use wml::debian::security

