<define-tag pagetitle>DLA-3594-1 cups</define-tag>
<define-tag report_date>2023-9-30</define-tag>
<define-tag secrefs>CVE-2023-4504 CVE-2023-32360 Bug##1051953</define-tag>
<define-tag packages>cups</define-tag>
<define-tag isvulnerable>yes</define-tag>
<define-tag fixed>yes</define-tag>
<define-tag fixed-section>no</define-tag>

#use wml::debian::security

