<define-tag pagetitle>DLA-3518-1 openimageio</define-tag>
<define-tag report_date>2023-8-07</define-tag>
<define-tag secrefs>CVE-2022-41649 CVE-2022-41684 CVE-2022-41794 CVE-2022-41837 CVE-2023-24472 CVE-2023-36183 Bug#1027143 Bug#1034151</define-tag>
<define-tag packages>openimageio</define-tag>
<define-tag isvulnerable>yes</define-tag>
<define-tag fixed>yes</define-tag>
<define-tag fixed-section>no</define-tag>

#use wml::debian::security

