<define-tag pagetitle>DLA-3545-1 flask-security</define-tag>
<define-tag report_date>2023-08-28</define-tag>
<define-tag secrefs>CVE-2021-23385 Bug#1021279</define-tag>
<define-tag packages>flask-security</define-tag>
<define-tag isvulnerable>yes</define-tag>
<define-tag fixed>yes</define-tag>
<define-tag fixed-section>no</define-tag>

#use wml::debian::security

