<define-tag pagetitle>DLA-3437-1 libssh</define-tag>
<define-tag report_date>2023-05-29</define-tag>
<define-tag secrefs>CVE-2019-14889 CVE-2023-1667 Bug#946548 Bug#1035832</define-tag>
<define-tag packages>libssh</define-tag>
<define-tag isvulnerable>yes</define-tag>
<define-tag fixed>yes</define-tag>
<define-tag fixed-section>no</define-tag>

#use wml::debian::security

