<define-tag pagetitle>DLA-3570-1 libwebp</define-tag>
<define-tag report_date>2023-09-18</define-tag>
<define-tag secrefs>CVE-2023-4863</define-tag>
<define-tag packages>libwebp</define-tag>
<define-tag isvulnerable>yes</define-tag>
<define-tag fixed>yes</define-tag>
<define-tag fixed-section>no</define-tag>

#use wml::debian::security

