<define-tag pagetitle>DLA-2289-1 mupdf</define-tag>
<define-tag report_date>2020-7-25</define-tag>
<define-tag secrefs>CVE-2018-16647 CVE-2018-16648 CVE-2018-18662 CVE-2019-6130 CVE-2019-13290</define-tag>
<define-tag packages>mupdf</define-tag>
<define-tag isvulnerable>yes</define-tag>
<define-tag fixed>yes</define-tag>
<define-tag fixed-section>no</define-tag>

#use wml::debian::security

