<define-tag pagetitle>DLA-2183-1 libgsf</define-tag>
<define-tag report_date>2020-4-25</define-tag>
<define-tag secrefs>CVE-2016-9888</define-tag>
<define-tag packages>libgsf</define-tag>
<define-tag isvulnerable>yes</define-tag>
<define-tag fixed>yes</define-tag>
<define-tag fixed-section>no</define-tag>

#use wml::debian::security

