<define-tag pagetitle>DLA-2191-1 dom4j</define-tag>
<define-tag report_date>2020-05-01</define-tag>
<define-tag secrefs>CVE-2020-10683 Bug#958055</define-tag>
<define-tag packages>dom4j</define-tag>
<define-tag isvulnerable>yes</define-tag>
<define-tag fixed>yes</define-tag>
<define-tag fixed-section>no</define-tag>

#use wml::debian::security

