<define-tag pagetitle>DLA-2355-1 bind9</define-tag>
<define-tag report_date>2020-8-29</define-tag>
<define-tag secrefs>CVE-2020-8622 CVE-2020-8623</define-tag>
<define-tag packages>bind9</define-tag>
<define-tag isvulnerable>yes</define-tag>
<define-tag fixed>yes</define-tag>
<define-tag fixed-section>no</define-tag>

#use wml::debian::security

