<define-tag pagetitle>DLA-2299-1 net-snmp</define-tag>
<define-tag report_date>2020-07-30</define-tag>
<define-tag secrefs></define-tag>
<define-tag packages>net-snmp</define-tag>
<define-tag isvulnerable>yes</define-tag>
<define-tag fixed>yes</define-tag>
<define-tag fixed-section>no</define-tag>

#use wml::debian::security
