<define-tag pagetitle>DLA-2145-2 twisted</define-tag>
<define-tag report_date>2020-03-19</define-tag>
<define-tag secrefs>CVE-2020-10108 CVE-2020-10109</define-tag>
<define-tag packages>twisted</define-tag>
<define-tag isvulnerable>yes</define-tag>
<define-tag fixed>yes</define-tag>
<define-tag fixed-section>no</define-tag>

#use wml::debian::security
