<define-tag pagetitle>DLA-2286-1 tomcat8</define-tag>
<define-tag report_date>2020-7-22</define-tag>
<define-tag secrefs>CVE-2020-13934 CVE-2020-13935</define-tag>
<define-tag packages>tomcat8</define-tag>
<define-tag isvulnerable>yes</define-tag>
<define-tag fixed>yes</define-tag>
<define-tag fixed-section>no</define-tag>

#use wml::debian::security

