<define-tag pagetitle>DLA-2062-1 sa-exim</define-tag>
<define-tag report_date>2020-1-9</define-tag>
<define-tag secrefs>CVE-2019-19920 Bug#946829</define-tag>
<define-tag packages>sa-exim</define-tag>
<define-tag isvulnerable>yes</define-tag>
<define-tag fixed>yes</define-tag>
<define-tag fixed-section>no</define-tag>

#use wml::debian::security

