<define-tag pagetitle>DLA-2213-1 exim4</define-tag>
<define-tag report_date>2020-05-16</define-tag>
<define-tag secrefs>CVE-2020-12783</define-tag>
<define-tag packages>exim4</define-tag>
<define-tag isvulnerable>yes</define-tag>
<define-tag fixed>yes</define-tag>
<define-tag fixed-section>no</define-tag>

#use wml::debian::security

