<define-tag pagetitle>DLA-2274-1 fwupd</define-tag>
<define-tag report_date>2020-07-09</define-tag>
<define-tag secrefs>CVE-2020-10759</define-tag>
<define-tag packages>fwupd</define-tag>
<define-tag isvulnerable>yes</define-tag>
<define-tag fixed>yes</define-tag>
<define-tag fixed-section>no</define-tag>

#use wml::debian::security
