<define-tag pagetitle>DLA-1545-1 tomcat8</define-tag>
<define-tag report_date>2018-10-15</define-tag>
<define-tag secrefs>CVE-2018-11784</define-tag>
<define-tag packages>tomcat8</define-tag>
<define-tag isvulnerable>yes</define-tag>
<define-tag fixed>yes</define-tag>
<define-tag fixed-section>no</define-tag>

#use wml::debian::security

