<define-tag pagetitle>DLA-1312-1 libvorbisidec</define-tag>
<define-tag report_date>2018-3-22</define-tag>
<define-tag secrefs>CVE-2018-5147</define-tag>
<define-tag packages>libvorbisidec</define-tag>
<define-tag isvulnerable>yes</define-tag>
<define-tag fixed>yes</define-tag>
<define-tag fixed-section>no</define-tag>

#use wml::debian::security

