<define-tag pagetitle>DLA-1568-1 curl</define-tag>
<define-tag report_date>2018-11-6</define-tag>
<define-tag secrefs>CVE-2016-7141 CVE-2016-7167 CVE-2016-9586 CVE-2018-16839 CVE-2018-16842 Bug#848958 Bug#837945 Bug#836918</define-tag>
<define-tag packages>curl</define-tag>
<define-tag isvulnerable>yes</define-tag>
<define-tag fixed>yes</define-tag>
<define-tag fixed-section>no</define-tag>

#use wml::debian::security

