<define-tag pagetitle>DLA-1531-1 linux-4.9</define-tag>
<define-tag report_date>2018-10-3</define-tag>
<define-tag secrefs>CVE-2018-6554 CVE-2018-6555 CVE-2018-7755 CVE-2018-9363 CVE-2018-9516 CVE-2018-10902 CVE-2018-10938 CVE-2018-13099 CVE-2018-14609 CVE-2018-14617 CVE-2018-14633 CVE-2018-1467 CVE-2018-14734 CVE-2018-15572 CVE-2018-15594 CVE-2018-1627 CVE-2018-16658 CVE-2018-17182</define-tag>
<define-tag packages>linux-4.9</define-tag>
<define-tag isvulnerable>yes</define-tag>
<define-tag fixed>yes</define-tag>
<define-tag fixed-section>no</define-tag>

#use wml::debian::security

