<define-tag pagetitle>DLA-1465-1 blender</define-tag>
<define-tag report_date>2018-8-13</define-tag>
<define-tag secrefs>CVE-2017-2899 CVE-2017-2900 CVE-2017-2901 CVE-2017-2902 CVE-2017-2903 CVE-2017-2904 CVE-2017-2905 CVE-2017-2906 CVE-2017-2907 CVE-2017-2908 CVE-2017-2918 CVE-2017-12081 CVE-2017-12082 CVE-2017-12086 CVE-2017-12099 CVE-2017-12100 CVE-2017-12101 CVE-2017-12102 CVE-2017-12103 CVE-2017-12104 CVE-2017-12105</define-tag>
<define-tag packages>blender</define-tag>
<define-tag isvulnerable>yes</define-tag>
<define-tag fixed>yes</define-tag>
<define-tag fixed-section>no</define-tag>

#use wml::debian::security

