<define-tag pagetitle>DLA-1410-1 python-pysaml2</define-tag>
<define-tag report_date>2018-7-1</define-tag>
<define-tag secrefs>CVE-2017-1000433 Bug#886423</define-tag>
<define-tag packages>python-pysaml2</define-tag>
<define-tag isvulnerable>yes</define-tag>
<define-tag fixed>yes</define-tag>
<define-tag fixed-section>no</define-tag>

#use wml::debian::security

