<define-tag pagetitle>DLA-1297-1 simplesamlphp</define-tag>
<define-tag report_date>2018-3-2</define-tag>
<define-tag secrefs>CVE-2016-9814 CVE-2016-9955</define-tag>
<define-tag packages>simplesamlphp</define-tag>
<define-tag isvulnerable>yes</define-tag>
<define-tag fixed>yes</define-tag>
<define-tag fixed-section>no</define-tag>

#use wml::debian::security

