<define-tag pagetitle>DSA-4398-1 php7.0</define-tag>
<define-tag report_date>2019-2-28</define-tag>
<define-tag secrefs>CVE-2019-9020 CVE-2019-9021 CVE-2019-9022 CVE-2019-9023 CVE-2019-9024</define-tag>
<define-tag packages>php7.0</define-tag>
<define-tag isvulnerable>yes</define-tag>
<define-tag fixed>yes</define-tag>
<define-tag fixed-section>no</define-tag>

#use wml::debian::security



</dl>
