<define-tag pagetitle>DSA-4548-1 openjdk-8</define-tag>
<define-tag report_date>2019-10-21</define-tag>
<define-tag secrefs>CVE-2019-2894 CVE-2019-2945 CVE-2019-2949 CVE-2019-2962 CVE-2019-2964 CVE-2019-2973 CVE-2019-2975 CVE-2019-2978 CVE-2019-2981 CVE-2019-2983 CVE-2019-2987 CVE-2019-2988 CVE-2019-2989 CVE-2019-2992 CVE-2019-2999</define-tag>
<define-tag packages>openjdk-8</define-tag>
<define-tag isvulnerable>yes</define-tag>
<define-tag fixed>yes</define-tag>
<define-tag fixed-section>no</define-tag>

#use wml::debian::security



</dl>
