<define-tag pagetitle>DSA-4545-1 mediawiki</define-tag>
<define-tag report_date>2019-10-18</define-tag>
<define-tag secrefs>CVE-2019-16738</define-tag>
<define-tag packages>mediawiki</define-tag>
<define-tag isvulnerable>yes</define-tag>
<define-tag fixed>yes</define-tag>
<define-tag fixed-section>no</define-tag>

#use wml::debian::security



</dl>
