<define-tag pagetitle>DSA-5232-1 tinygltf</define-tag>
<define-tag report_date>2022-9-21</define-tag>
<define-tag secrefs>CVE-2022-3008 Bug#1019357</define-tag>
<define-tag packages>tinygltf</define-tag>
<define-tag isvulnerable>yes</define-tag>
<define-tag fixed>yes</define-tag>
<define-tag fixed-section>no</define-tag>

#use wml::debian::security



</dl>
