<define-tag pagetitle>DSA-5279-1 wordpress</define-tag>
<define-tag report_date>2022-11-15</define-tag>
<define-tag secrefs>Bug#1007005 Bug#1018863 Bug#1022575</define-tag>
<define-tag packages>wordpress</define-tag>
<define-tag isvulnerable>yes</define-tag>
<define-tag fixed>yes</define-tag>
<define-tag fixed-section>no</define-tag>

#use wml::debian::security



</dl>
