<define-tag pagetitle>DSA-5140-1 openldap</define-tag>
<define-tag report_date>2022-5-19</define-tag>
<define-tag secrefs>CVE-2022-29155</define-tag>
<define-tag packages>openldap</define-tag>
<define-tag isvulnerable>yes</define-tag>
<define-tag fixed>yes</define-tag>
<define-tag fixed-section>no</define-tag>

#use wml::debian::security



</dl>
