<define-tag pagetitle>DSA-5274-1 wpewebkit</define-tag>
<define-tag report_date>2022-11-08</define-tag>
<define-tag secrefs>CVE-2022-42799 CVE-2022-42823 CVE-2022-42824</define-tag>
<define-tag packages>wpewebkit</define-tag>
<define-tag isvulnerable>yes</define-tag>
<define-tag fixed>yes</define-tag>
<define-tag fixed-section>no</define-tag>

#use wml::debian::security



</dl>
