<define-tag pagetitle>DSA-5198-1 jetty9</define-tag>
<define-tag report_date>2022-8-02</define-tag>
<define-tag secrefs>CVE-2022-2047 CVE-2022-2048</define-tag>
<define-tag packages>jetty9</define-tag>
<define-tag isvulnerable>yes</define-tag>
<define-tag fixed>yes</define-tag>
<define-tag fixed-section>no</define-tag>

#use wml::debian::security



</dl>
