<define-tag pagetitle>DSA-5138-1 waitress</define-tag>
<define-tag report_date>2022-5-17</define-tag>
<define-tag secrefs>CVE-2022-24761 Bug#1008013</define-tag>
<define-tag packages>waitress</define-tag>
<define-tag isvulnerable>yes</define-tag>
<define-tag fixed>yes</define-tag>
<define-tag fixed-section>no</define-tag>

#use wml::debian::security



</dl>
