<define-tag pagetitle>DSA-5094-1 thunderbird</define-tag>
<define-tag report_date>2022-3-08</define-tag>
<define-tag secrefs>CVE-2022-26485 CVE-2022-26486</define-tag>
<define-tag packages>thunderbird</define-tag>
<define-tag isvulnerable>yes</define-tag>
<define-tag fixed>yes</define-tag>
<define-tag fixed-section>no</define-tag>

#use wml::debian::security



</dl>
