<define-tag pagetitle>DSA-5248-1 php-twig</define-tag>
<define-tag report_date>2022-10-04</define-tag>
<define-tag secrefs>CVE-2022-39261 Bug#1020991</define-tag>
<define-tag packages>php-twig</define-tag>
<define-tag isvulnerable>yes</define-tag>
<define-tag fixed>yes</define-tag>
<define-tag fixed-section>no</define-tag>

#use wml::debian::security



</dl>
