<define-tag pagetitle>DSA-5261-1 chromium</define-tag>
<define-tag report_date>2022-10-26</define-tag>
<define-tag secrefs>CVE-2022-3652 CVE-2022-3653 CVE-2022-3654 CVE-2022-3655 CVE-2022-3656 CVE-2022-3657 CVE-2022-3658 CVE-2022-3659 CVE-2022-3660 CVE-2022-3661</define-tag>
<define-tag packages>chromium</define-tag>
<define-tag isvulnerable>yes</define-tag>
<define-tag fixed>yes</define-tag>
<define-tag fixed-section>no</define-tag>

#use wml::debian::security



</dl>
