<define-tag pagetitle>DSA-5103-1 openssl</define-tag>
<define-tag report_date>2022-3-15</define-tag>
<define-tag secrefs>CVE-2021-4160 CVE-2022-0778 Bug#989604</define-tag>
<define-tag packages>openssl</define-tag>
<define-tag isvulnerable>yes</define-tag>
<define-tag fixed>yes</define-tag>
<define-tag fixed-section>no</define-tag>

#use wml::debian::security



</dl>
