<define-tag pagetitle>DSA-5153-1 trafficserver</define-tag>
<define-tag report_date>2022-5-30</define-tag>
<define-tag secrefs>CVE-2021-37147 CVE-2021-37148 CVE-2021-37149 CVE-2021-38161 CVE-2021-44040 CVE-2021-44759</define-tag>
<define-tag packages>trafficserver</define-tag>
<define-tag isvulnerable>yes</define-tag>
<define-tag fixed>yes</define-tag>
<define-tag fixed-section>no</define-tag>

#use wml::debian::security



</dl>
