<define-tag pagetitle>DSA-5116-1 wpewebkit</define-tag>
<define-tag report_date>2022-4-08</define-tag>
<define-tag secrefs>CVE-2022-22624 CVE-2022-22628 CVE-2022-22629</define-tag>
<define-tag packages>wpewebkit</define-tag>
<define-tag isvulnerable>yes</define-tag>
<define-tag fixed>yes</define-tag>
<define-tag fixed-section>no</define-tag>

#use wml::debian::security



</dl>
