<define-tag pagetitle>DSA-5151-1 smarty3</define-tag>
<define-tag report_date>2022-5-29</define-tag>
<define-tag secrefs>CVE-2021-21408 CVE-2021-26119 CVE-2021-26120 CVE-2021-29454 CVE-2022-29221 Bug#1010375 Bug#1011758</define-tag>
<define-tag packages>smarty3</define-tag>
<define-tag isvulnerable>yes</define-tag>
<define-tag fixed>yes</define-tag>
<define-tag fixed-section>no</define-tag>

#use wml::debian::security



</dl>
