<define-tag pagetitle>DLA-1645-1 wireshark</define-tag>
<define-tag report_date>2019-1-28</define-tag>
<define-tag secrefs>CVE-2019-5716 CVE-2019-5717 CVE-2019-5719</define-tag>
<define-tag packages>wireshark</define-tag>
<define-tag isvulnerable>yes</define-tag>
<define-tag fixed>yes</define-tag>
<define-tag fixed-section>no</define-tag>

#use wml::debian::security

