<define-tag pagetitle>DLA-1941-1 netty</define-tag>
<define-tag report_date>2019-09-30</define-tag>
<define-tag secrefs>CVE-2019-16869</define-tag>
<define-tag packages>netty</define-tag>
<define-tag isvulnerable>yes</define-tag>
<define-tag fixed>yes</define-tag>
<define-tag fixed-section>no</define-tag>

#use wml::debian::security

