<define-tag pagetitle>DLA-1927-1 qemu</define-tag>
<define-tag report_date>2019-09-20</define-tag>
<define-tag secrefs>CVE-2016-5126 CVE-2016-5403 CVE-2017-9375 CVE-2019-12068 CVE-2019-12155 CVE-2019-13164 CVE-2019-14378 CVE-2019-15890 Bug#826151 Bug#832619 Bug#864219 Bug#929353 Bug#931351 Bug#933741 Bug#933742 Bug#939868 Bug#939869</define-tag>
<define-tag packages>qemu</define-tag>
<define-tag isvulnerable>yes</define-tag>
<define-tag fixed>yes</define-tag>
<define-tag fixed-section>no</define-tag>

#use wml::debian::security

