<define-tag pagetitle>DLA-556-1 squid3</define-tag>
<define-tag report_date>2016-7-23</define-tag>
<define-tag secrefs>CVE-2016-4051</define-tag>
<define-tag packages>squid3</define-tag>
<define-tag isvulnerable>yes</define-tag>
<define-tag fixed>yes</define-tag>
<define-tag fixed-section>no</define-tag>

#use wml::debian::security

