<define-tag pagetitle>DLA-514-1 libxslt</define-tag>
<define-tag report_date>2016-6-12</define-tag>
<define-tag secrefs>CVE-2015-7995 CVE-2016-1683 CVE-2016-1684</define-tag>
<define-tag packages>libxslt</define-tag>
<define-tag isvulnerable>yes</define-tag>
<define-tag fixed>yes</define-tag>
<define-tag fixed-section>no</define-tag>

#use wml::debian::security

