<define-tag pagetitle>DLA-495-1 libtasn1-3</define-tag>
<define-tag report_date>2016-5-30</define-tag>
<define-tag secrefs>CVE-2016-4008</define-tag>
<define-tag packages>libtasn1-3</define-tag>
<define-tag isvulnerable>yes</define-tag>
<define-tag fixed>yes</define-tag>
<define-tag fixed-section>no</define-tag>

#use wml::debian::security

