<define-tag pagetitle>DLA-709-1 postgresql-9.1</define-tag>
<define-tag report_date>2016-11-16</define-tag>
<define-tag packages>postgresql-9.1</define-tag>
<define-tag isvulnerable>yes</define-tag>
<define-tag fixed>yes</define-tag>
<define-tag fixed-section>no</define-tag>

#use wml::debian::security

