<define-tag pagetitle>DLA-549-1 ruby-eventmachine</define-tag>
<define-tag report_date>2016-7-15</define-tag>
<define-tag secrefs>Bug#678512 Bug#696015</define-tag>
<define-tag packages>ruby-eventmachine</define-tag>
<define-tag isvulnerable>yes</define-tag>
<define-tag fixed>yes</define-tag>
<define-tag fixed-section>no</define-tag>

#use wml::debian::security

