<define-tag pagetitle>DLA-496-1 ruby-activerecord-3.2</define-tag>
<define-tag report_date>2016-5-30</define-tag>
<define-tag secrefs>CVE-2015-7577 Bug#N/A</define-tag>
<define-tag packages>ruby-activerecord-3.2</define-tag>
<define-tag isvulnerable>yes</define-tag>
<define-tag fixed>yes</define-tag>
<define-tag fixed-section>no</define-tag>

#use wml::debian::security

